acls:
  enable: false
  modify_groups: []
  modify_users: []
  ui_users: []
  view_groups: []
  view_users: []
file_systems: []
master:
  env:
    SPARK_CONF_DIR: /etc/spark3/conf
    SPARK_HOME: /usr/lib/spark3
  files:
    airflow.keytab:
      size: 0
      source: file:///pytest/path/to/airflow.keytab
      timestamp: 0
      type: FILE
      visibility: APPLICATION
  log_level: INFO
  resources:
    fpgas: 0
    gpus: 0
    memory: 4096
    vcores: 1
  script: spark3-submit --driver-cores 2 --conf spark.executorEnv.SPARK_HOME=/usr/lib/spark3
    --conf spark.executorEnv.SPARK_CONF_DIR=/etc/spark3/conf --master yarn --conf
    spark.dynamicAllocation.enabled=true --conf spark.dynamicAllocation.maxExecutors=70
    --conf spark.shuffle.service.enabled=true --conf spark.yarn.maxAppAttempts=1 --conf
    spark.sql.shuffle.partitions=200 --conf spark.sql.executor.memoryOverhead=640M
    --conf spark.sql.shuffle.service.enabled=true --conf spark.yarn.appMasterEnv.SPARK_CONF_DIR=/etc/spark3/conf
    --conf spark.yarn.appMasterEnv.SPARK_HOME=/usr/lib/spark3 --executor-cores 3 --executor-memory
    6G --driver-memory 1G --keytab airflow.keytab --principal airflow --name glent_weekly__generate_session_similarity_suggestions__20200509
    --queue production --deploy-mode cluster hdfs:///wmf/cache/artifacts/airflow/search/glent-0.3.3-jar-with-dependencies.jar
    m0run --input-table glent.m0prep --input-partition 20200516 --output-table glent.suggestions
    --output-partition 20200516 --max-output-partitions 5
max_attempts: 1
name: Airflow SparkSkeinSubmitHook skein launcher glent_weekly__generate_session_similarity_suggestions__20200509
node_label: ''
queue: production
services: {}
tags: []
user: ''
