acls:
  enable: false
  modify_groups: []
  modify_users: []
  ui_users: []
  view_groups: []
  view_users: []
file_systems: []
master:
  env:
    SPARK_CONF_DIR: /etc/spark3/conf
    SPARK_HOME: /usr/lib/spark3
  files:
    airflow.keytab:
      size: 0
      source: file:///pytest/path/to/airflow.keytab
      timestamp: 0
      type: FILE
      visibility: APPLICATION
  log_level: INFO
  resources:
    fpgas: 0
    gpus: 0
    memory: 3815
    vcores: 2
  script: spark3-submit --driver-cores 2 --conf spark.executorEnv.SPARK_HOME=/usr/lib/spark3
    --conf spark.executorEnv.SPARK_CONF_DIR=/etc/spark3/conf --master yarn --conf
    spark.dynamicAllocation.maxExecutors=16 --conf spark.yarn.appMasterEnv.SPARK_CONF_DIR=/etc/spark3/conf
    --conf spark.yarn.appMasterEnv.SPARK_HOME=/usr/lib/spark3 --executor-cores 2 --executor-memory
    8G --driver-memory 4G --keytab airflow.keytab --principal airflow --name anomaly_detection_mobile_os_distribution_daily__source_metrics__20220615
    --class org.apache.spark.sql.hive.thriftserver.WMFSparkSQLCLIDriver --queue production
    --deploy-mode client hdfs:///wmf/cache/artifacts/airflow/analytics/wmf-sparksqlclidriver-1.0.0.jar
    -f hdfs://analytics-hadoop/wmf/refinery/current/hql/anomaly_detection/mobile_os_distribution.hql
    -d refinery_hive_jar=hdfs:///wmf/cache/artifacts/airflow/analytics/refinery-job-0.2.1-shaded.jar
    -d source_table=wmf.pageview_hourly -d destination_table=wmf.anomaly_detection
    -d source=mobile_os_distribution -d year=2022 -d month=6 -d day=14
max_attempts: 1
name: Airflow SparkSkeinSubmitHook skein launcher anomaly_detection_mobile_os_distribution_daily__source_metrics__20220615
node_label: ''
queue: production
services: {}
tags: []
user: ''
