acls:
  enable: false
  modify_groups: []
  modify_users: []
  ui_users: []
  view_groups: []
  view_users: []
file_systems: []
master:
  env:
    SPARK_CONF_DIR: /etc/spark3/conf
    SPARK_HOME: /usr/lib/spark3
  files:
    airflow.keytab:
      size: 0
      source: file:///pytest/path/to/airflow.keytab
      timestamp: 0
      type: FILE
      visibility: APPLICATION
  log_level: INFO
  resources:
    fpgas: 0
    gpus: 0
    memory: 1908
    vcores: 1
  script: spark3-submit --driver-cores 1 --conf spark.executorEnv.SPARK_HOME=/usr/lib/spark3
    --conf spark.executorEnv.SPARK_CONF_DIR=/etc/spark3/conf --master yarn --conf
    spark.dynamicAllocation.maxExecutors=1 --conf spark.yarn.appMasterEnv.SPARK_CONF_DIR=/etc/spark3/conf
    --conf spark.yarn.appMasterEnv.SPARK_HOME=/usr/lib/spark3 --executor-cores 4 --executor-memory
    4G --driver-memory 2G --keytab airflow.keytab --principal airflow --name refine_webrequest_hourly_upload__extract_data_loss_warnings__20230411
    --class org.apache.spark.sql.hive.thriftserver.WMFSparkSQLCLIDriver --queue production
    --deploy-mode client hdfs:///wmf/cache/artifacts/airflow/analytics/wmf-sparksqlclidriver-1.0.0.jar
    -f hdfs://analytics-hadoop/wmf/refinery/current/hql/webrequest/extract_data_loss.hql
    -d webrequest_source=upload -d year=2023 -d month=4 -d day=11 -d hour=15 -d source_table=wmf_raw.webrequest_sequence_stats_hourly
    -d target=hdfs://analytics-hadoop/wmf/data/raw/webrequests_data_loss/upload/2023/4/11/15/WARNING
    -d incomplete_data_threshold=0.5 -d data_loss_threshold=0.5
max_attempts: 1
name: Airflow SparkSkeinSubmitHook skein launcher refine_webrequest_hourly_upload__extract_data_loss_warnings__20230411
node_label: ''
queue: production
services: {}
tags: []
user: ''
