acls:
  enable: false
  modify_groups: []
  modify_users: []
  ui_users: []
  view_groups: []
  view_users: []
file_systems: []
master:
  env:
    SPARK_CONF_DIR: /etc/spark3/conf
    SPARK_HOME: /usr/lib/spark3
  files:
    airflow.keytab:
      size: 0
      source: file:///pytest/path/to/airflow.keytab
      timestamp: 0
      type: FILE
      visibility: APPLICATION
  log_level: INFO
  resources:
    fpgas: 0
    gpus: 0
    memory: 3815
    vcores: 2
  script: spark3-submit --driver-cores 2 --conf spark.executorEnv.SPARK_HOME=/usr/lib/spark3
    --conf spark.executorEnv.SPARK_CONF_DIR=/etc/spark3/conf --master yarn --conf
    spark.dynamicAllocation.enabled=true --conf spark.dynamicAllocation.maxExecutors=16
    --conf spark.shuffle.service.enabled=true --conf spark.yarn.maxAppAttempts=1 --conf
    spark.yarn.appMasterEnv.SPARK_CONF_DIR=/etc/spark3/conf --conf spark.yarn.appMasterEnv.SPARK_HOME=/usr/lib/spark3
    --executor-cores 2 --executor-memory 4G --driver-memory 4G --keytab airflow.keytab
    --principal airflow --name druid_load_prefupdate_daily__load_to_druid__20221222
    --class org.wikimedia.analytics.refinery.job.HiveToDruid --queue production --deploy-mode
    client hdfs:///wmf/cache/artifacts/airflow/analytics/refinery-job-0.2.11-shaded.jar
    --database event --table prefupdate --druid_datasource event_prefupdate --since
    2022-12-21T00 --until 2022-12-22T00 --timestamp_column dt --timestamp_format auto
    --query_granularity minute --segment_granularity day --num_shards 1 --map_memory
    2048 --reduce_memory 8192 --hadoop_queue production --druid_host an-druid1001.eqiad.wmnet
    --druid_port 8090 --count_metric_name count --dimensions event.property,event.isDefault,wiki,useragent.browser_family,useragent.browser_major,useragent.browser_minor,useragent.device_family,useragent.os_family,useragent.os_major,useragent.os_minor
max_attempts: 1
name: Airflow SparkSkeinSubmitHook skein launcher druid_load_prefupdate_daily__load_to_druid__20221222
node_label: ''
queue: production
services: {}
tags: []
user: ''
