acls:
  enable: false
  modify_groups: []
  modify_users: []
  ui_users: []
  view_groups: []
  view_users: []
file_systems: []
master:
  env:
    SPARK_CONF_DIR: /etc/spark3/conf
    SPARK_HOME: /usr/lib/spark3
  files:
    airflow.keytab:
      size: 0
      source: file:///pytest/path/to/airflow.keytab
      timestamp: 0
      type: FILE
      visibility: APPLICATION
  log_level: INFO
  resources:
    fpgas: 0
    gpus: 0
    memory: 3815
    vcores: 2
  script: spark3-submit --driver-cores 2 --conf spark.executorEnv.SPARK_HOME=/usr/lib/spark3
    --conf spark.executorEnv.SPARK_CONF_DIR=/etc/spark3/conf --master yarn --conf
    spark.yarn.executor.memoryOverhead=2048 --conf hive.exec.dynamic.partition.mode=nonstrict
    --conf spark.yarn.appMasterEnv.SPARK_CONF_DIR=/etc/spark3/conf --conf spark.yarn.appMasterEnv.SPARK_HOME=/usr/lib/spark3
    --executor-cores 4 --executor-memory 8G --driver-memory 4G --keytab airflow.keytab
    --principal airflow --name knowledge_gaps_development_db_dag__generate_development_database__20231101
    --class org.apache.spark.sql.hive.thriftserver.WMFSparkSQLCLIDriver --queue production
    --deploy-mode client hdfs:///wmf/cache/artifacts/airflow/research/wmf-sparksqlclidriver-1.0.0.jar
    -f https://gitlab.wikimedia.org/repos/research/knowledge-gaps/-/raw/9bf00dda519bd5ed1076a497ef520533870bc769/knowledge_gaps/config/development.sql
    -d mediawiki_snapshot=2023-10 -d wikidata_snapshot=2023-09-25 -d 'wikis='"'"'elwiki'"'"''
    -d database_name=development_data -d table_prefix=dev_
max_attempts: 1
name: Airflow SparkSkeinSubmitHook skein launcher knowledge_gaps_development_db_dag__generate_development_database__20231101
node_label: ''
queue: production
services: {}
tags: []
user: ''
